%YAML 1.1
%TAG !u! tag:unity3d.com,2011:
--- !u!114 &11400000
MonoBehaviour:
  m_ObjectHideFlags: 0
  m_CorrespondingSourceObject: {fileID: 0}
  m_PrefabInternal: {fileID: 0}
  m_GameObject: {fileID: 0}
  m_Enabled: 1
  m_EditorHideFlags: 0
  m_Script: {fileID: 763834002, guid: 5b00bf8b25851d440940a40ec23344f4, type: 3}
  m_Name: BoltPrefabDatabase
  m_EditorClassIdentifier: 
  DatabaseMode: 0
  Prefabs:
  - {fileID: 0}
  - {fileID: 1890901432694842, guid: ae35f4baa79e541569c51753c4952544, type: 2}
