%YAML 1.1
%TAG !u! tag:unity3d.com,2011:
--- !u!114 &11400000
MonoBehaviour:
  m_ObjectHideFlags: 0
  m_CorrespondingSourceObject: {fileID: 0}
  m_PrefabInternal: {fileID: 0}
  m_GameObject: {fileID: 0}
  m_Enabled: 1
  m_EditorHideFlags: 0
  m_Script: {fileID: 11500000, guid: 299fb6c3524dea440a5017de091569d0, type: 3}
  m_Name: __actions_buggy
  m_EditorClassIdentifier: 
  allActions:
  - {fileID: 11400000, guid: 6dc18bc73bad10f46a50e23ebb4f8087, type: 2}
  - {fileID: 11400000, guid: 4f76a97276c710d408ecb8affeda309c, type: 2}
  - {fileID: 11400000, guid: dc5275c6183771d46a0d7b4254c9a2e3, type: 2}
  - {fileID: 11400000, guid: 9858eaee812922345bba7a59665481a3, type: 2}
  nonVisualInActions:
  - {fileID: 11400000, guid: 6dc18bc73bad10f46a50e23ebb4f8087, type: 2}
  - {fileID: 11400000, guid: 4f76a97276c710d408ecb8affeda309c, type: 2}
  - {fileID: 11400000, guid: dc5275c6183771d46a0d7b4254c9a2e3, type: 2}
  - {fileID: 11400000, guid: 9858eaee812922345bba7a59665481a3, type: 2}
  visualActions: []
  poseActions: []
  skeletonActions: []
  outActionArray: []
  fullPath: /actions/buggy
  usage: single
  inActions: {fileID: 11400000, guid: 39fdff69a2e48324fb1f0e66469b8dcd, type: 2}
