%YAML 1.1
%TAG !u! tag:unity3d.com,2011:
--- !u!114 &11400000
MonoBehaviour:
  m_ObjectHideFlags: 0
  m_CorrespondingSourceObject: {fileID: 0}
  m_PrefabInternal: {fileID: 0}
  m_GameObject: {fileID: 0}
  m_Enabled: 1
  m_EditorHideFlags: 0
  m_Script: {fileID: 11500000, guid: 2f9a5af6c0e164c45bb6039c51783453, type: 3}
  m_Name: SteamVR_Input_ActionSet_platformer_In
  m_EditorClassIdentifier: 
  actionSet: {fileID: 0}
  listDirection: 0
  actions:
  - {fileID: 11400000, guid: 481fb4181f1a10e4e8f3ae96eb1c9057, type: 2}
  - {fileID: 11400000, guid: fa448b01bbae7c7459b6d3c4332a428c, type: 2}
  Move: {fileID: 11400000, guid: 481fb4181f1a10e4e8f3ae96eb1c9057, type: 2}
  Jump: {fileID: 11400000, guid: fa448b01bbae7c7459b6d3c4332a428c, type: 2}
